<?xml version="1.0" encoding="UTF-8" standalone="no"?>
<!DOCTYPE svg PUBLIC "-//W3C//DTD SVG 1.1//EN" "http://www.w3.org/Graphics/SVG/1.1/DTD/svg11.dtd">
<!-- Created with Vectornator (http://vectornator.io/) -->
<svg height="100%" stroke-miterlimit="10" style="fill-rule:nonzero;clip-rule:evenodd;stroke-linecap:round;stroke-linejoin:round;" version="1.1" viewBox="0 0 32 32" width="100%" xml:space="preserve" xmlns="http://www.w3.org/2000/svg" xmlns:xlink="http://www.w3.org/1999/xlink">
<defs/>
<clipPath id="ArtboardFrame">
<rect height="32" width="32" x="0" y="0"/>
</clipPath>
<g clip-path="url(#ArtboardFrame)" id="Layer-1">
<path d="M3-1C3-1 3 17.5161 7 22.737C9 25.3474 13.7424 26 16 26C18.6592 26 22.9864 25.3652 25 22.737C29 17.5161 29-1 29-1L3-1Z" fill="#75a065" fill-rule="nonzero" opacity="1" stroke="#141414" stroke-linecap="butt" stroke-linejoin="round" stroke-width="0.160974"/>
<path d="M9 6C9 13.254 11 23.5625 16 23.5625C21 23.5625 23 13.254 23 6C23 3.8002 23 0 23 0L9 0C9 0 9 4.6896 9 6Z" fill="#9eae70" fill-rule="nonzero" opacity="1" stroke="none"/>
<path d="M14 17.5C14 15.567 14.8954 14 16 14C17.1046 14 18 15.567 18 17.5C18 19.433 17.1046 21 16 21C14.8954 21 14 19.433 14 17.5Z" fill="#e1a874" fill-rule="nonzero" opacity="1" stroke="none"/>
<path d="M14 4.5C14 2.01472 14.8954 0 16 0C17.1046 0 18 2.01472 18 4.5C18 6.98528 17.1046 9 16 9C14.8954 9 14 6.98528 14 4.5Z" fill="#e1a874" fill-rule="nonzero" opacity="1" stroke="none"/>
<path d="M15 17.5C15 16.1193 15.4477 15 16 15C16.5523 15 17 16.1193 17 17.5C17 18.8807 16.5523 20 16 20C15.4477 20 15 18.8807 15 17.5Z" fill="#b35a52" fill-rule="nonzero" opacity="1" stroke="none"/>
<path d="M15 4.5C15 2.567 15.4477 1 16 1C16.5523 1 17 2.567 17 4.5C17 6.433 16.5523 8 16 8C15.4477 8 15 6.433 15 4.5Z" fill="#b35a52" fill-rule="nonzero" opacity="1" stroke="none"/>
<path d="M17.7215 1.48934L17.7633 1.48934L17.7633 1.48934L17.7215 1.48934L17.7215 1.48934Z" fill="#75a065" fill-rule="nonzero" opacity="1" stroke="none"/>
</g>
</svg>
